<svg xmlns="http://www.w3.org/2000/svg" width="35.2" height="35.194" viewBox="0 0 35.2 35.194">
  <path id="FB" d="M213.785,355.366H188.073a4.742,4.742,0,0,0-4.741,4.741v25.712a4.742,4.742,0,0,0,4.741,4.741h12.682l.021-12.577h-3.268a.769.769,0,0,1-.768-.768l-.016-4.052a.767.767,0,0,1,.768-.773h3.263v-3.921c0-4.547,2.779-7.02,6.831-7.02h3.331a.77.77,0,0,1,.768.774v3.415a.77.77,0,0,1-.768.774h-2.042c-2.2,0-2.631,1.047-2.631,2.584v3.394h4.841a.772.772,0,0,1,.768.863l-.479,4.052a.773.773,0,0,1-.768.679h-4.341l-.021,12.577h7.541a4.743,4.743,0,0,0,4.747-4.741V360.107A4.743,4.743,0,0,0,213.785,355.366Z" transform="translate(-183.332 -355.366)" fill="#290088"/>
</svg>
