<svg xmlns="http://www.w3.org/2000/svg" xmlns:xlink="http://www.w3.org/1999/xlink" width="17.689" height="17.689" viewBox="0 0 17.689 17.689">
  <defs>
    <clipPath id="clip-path">
      <rect id="Rectangle_4365" data-name="Rectangle 4365" width="17.689" height="17.689" transform="translate(0 0)" fill="#290088"/>
    </clipPath>
  </defs>
  <g id="Group_22172" data-name="Group 22172" transform="translate(0 0)">
    <g id="Group_22165" data-name="Group 22165" transform="translate(0 0)" clip-path="url(#clip-path)">
      <path id="Path_101502" data-name="Path 101502" d="M.7,7.481,8.062,9.628l2.147,7.364a.969.969,0,0,0,.9.7h.028a.969.969,0,0,0,.913-.645L17.634,1.293A.969.969,0,0,0,16.4.056L.645,5.638A.969.969,0,0,0,.7,7.481m14.431-4.92-3.9,11.007L9.774,8.575a.969.969,0,0,0-.659-.659L4.122,6.461Z" transform="translate(0 0)" fill="#290088"/>
    </g>
  </g>
</svg>
