<svg xmlns="http://www.w3.org/2000/svg" width="32.923" height="28.992" viewBox="0 0 32.923 28.992">
  <g id="Group_20841" data-name="Group 20841" transform="translate(0.25 -30.75)">
    <path id="Path_97685" data-name="Path 97685" d="M10.445,49.995H27.669a.95.95,0,0,0,.913-.689l3.8-13.3a.95.95,0,0,0-.913-1.211H8.254l-.679-3.055A.95.95,0,0,0,6.648,31H.95a.95.95,0,1,0,0,1.9H5.886L9.315,48.33a2.849,2.849,0,0,0,1.132,5.463H27.669a.95.95,0,1,0,0-1.9H10.447a.95.95,0,0,1,0-1.9ZM30.209,36.7,26.952,48.1H11.209L8.676,36.7Z" fill="#290088" stroke="#290088" stroke-miterlimit="10" stroke-width="0.5"/>
    <path id="Path_97686" data-name="Path 97686" d="M150,393.849A2.849,2.849,0,1,0,152.849,391,2.852,2.852,0,0,0,150,393.849Zm2.849-.95a.95.95,0,1,1-.95.95A.951.951,0,0,1,152.849,392.9Z" transform="translate(-140.503 -337.206)" fill="#290088" stroke="#290088" stroke-miterlimit="10" stroke-width="0.5"/>
    <path id="Path_97687" data-name="Path 97687" d="M362,393.849A2.849,2.849,0,1,0,364.849,391,2.852,2.852,0,0,0,362,393.849Zm2.849-.95a.95.95,0,1,1-.95.95A.951.951,0,0,1,364.849,392.9Z" transform="translate(-339.08 -337.206)" fill="#290088" stroke="#290088" stroke-miterlimit="10" stroke-width="0.5"/>
  </g>
</svg>
