<svg xmlns="http://www.w3.org/2000/svg" width="18.647" height="18.647" viewBox="0 0 18.647 18.647">
  <g id="Icon_ionic-md-time" data-name="Icon ionic-md-time" transform="translate(0.001)">
    <path id="Path_101263" data-name="Path 101263" d="M12.689,3.375A9.323,9.323,0,1,0,22.022,12.7,9.32,9.32,0,0,0,12.689,3.375ZM12.7,20.157A7.459,7.459,0,1,1,20.157,12.7,7.459,7.459,0,0,1,12.7,20.157Z" transform="translate(-3.376 -3.375)" fill="#290088"/>
    <path id="Path_101264" data-name="Path 101264" d="M17.936,10.687h-1.4v5.594l4.895,2.936.7-1.147-4.2-2.488Z" transform="translate(-8.147 -6.026)" fill="#290088"/>
  </g>
</svg>
